Regressão Linear no R | Insper Data
…
## Warning: package 'sandwich' was built under R version 4.0.3

Possui uma função de regressão com variáveis instrumentais, realizando a regressão linear por meio do método 2SLS (Two-Stage Least Squares).

O único elemento diferente do curso tradicional de econometria (além da aplicação no R) é o uso do teste Breusch-Pagan de heterocedasticidade ao invés do teste de White. Apesar de ser mais fácil de pronunciar, o teste de White não é feito de forma satisfatória no R. Contudo, ele é apenas um caso especial do teste Breusch-Pagan. Além disso, o teste de White é tão específico que pode indicar outros problemas no modelo que não a heterocedasticidade, não indicando qual o problema encontrado. Dessa forma, o Breusch-Pagan é uma forma menos confusa e mais objetiva de realizar esse teste.

  Base utilizada
  #

A título de exemplo, utilizaremos a clássica base mtcars, já presente no R. Como ela vem como um data.frame, transformarei ela em um tibble para mais fácil manipulação. Aproveitarei para realizar uma análise exploratória com o skimr.

tibble(mtcars)

## # A tibble: 32 x 11
##      mpg   cyl  disp    hp  drat    wt  qsec    vs    am  gear  carb
##    <dbl> <dbl> <dbl> <dbl> <dbl> <dbl> <dbl> <dbl> <dbl> <dbl> <dbl>
##  1  21       6  160    110  3.9   2.62  16.5     0     1     4     4
##  2  21       6  160    110  3.9   2.88  17.0     0     1     4     4
##  3  22.8     4  108     93  3.85  2.32  18.6     1     1     4     1
##  4  21.4     6  258    110  3.08  3.22  19.4     1     0     3     1
##  5  18.7     8  360    175  3.15  3.44  17.0     0     0     3     2
##  6  18.1     6  225    105  2.76  3.46  20.2     1     0     3     1
##  7  14.3     8  360    245  3.21  3.57  15.8     0     0     3     4
##  8  24.4     4  147.    62  3.69  3.19  20       1     0     4     2
##  9  22.8     4  141.    95  3.92  3.15  22.9     1     0     4     2
## 10  19.2     6  168.   123  3.92  3.44  18.3     1     0     4     4
## # ... with 22 more rows
…
Apesar de todas as variáveis serem numéricas, é possível observar que algumas delas, como a ‘cyl’, são variáveis discretas. Por isso, é desejável que elas sejam tratadas como fatores, não como variáveis contínuas. O código a seguir faz exatamente isso, transformando em fatores apenas as variáveis com menos de 6 valores distintos.

df <- 
  tibble(mtcars) %>% 
  mutate_if(~ length(unique(.x)) < 6, as.factor)
df

## # A tibble: 32 x 11
##      mpg cyl    disp    hp  drat    wt  qsec vs    am    gear   carb
##    <dbl> <fct> <dbl> <dbl> <dbl> <dbl> <dbl> <fct> <fct> <fct> <dbl>
##  1  21   6      160    110  3.9   2.62  16.5 0     1     4         4
##  2  21   6      160    110  3.9   2.88  17.0 0     1     4         4
##  3  22.8 4      108     93  3.85  2.32  18.6 1     1     4         1
##  4  21.4 6      258    110  3.08  3.22  19.4 1     0     3         1
##  5  18.7 8      360    175  3.15  3.44  17.0 0     0     3         2
##  6  18.1 6      225    105  2.76  3.46  20.2 1     0     3         1
##  7  14.3 8      360    245  3.21  3.57  15.8 0     0     3         4
##  8  24.4 4      147.    62  3.69  3.19  20   1     0     4         2
##  9  22.8 4      141.    95  3.92  3.15  22.9 1     0     4         2
## 10  19.2 6      168.   123  3.92  3.44  18.3 1     0     4         4
## # ... with 22 more rows
…
augment(reg)

## # A tibble: 32 x 17
##      mpg cyl    disp    hp  drat    wt  qsec vs    am    gear   carb .fitted
##    <dbl> <fct> <dbl> <dbl> <dbl> <dbl> <dbl> <fct> <fct> <fct> <dbl>   <dbl>
##  1  21   6      160    110  3.9   2.62  16.5 0     1     4         4    21.3
##  2  21   6      160    110  3.9   2.88  17.0 0     1     4         4    20.9
##  3  22.8 4      108     93  3.85  2.32  18.6 1     1     4         1    25.7
##  4  21.4 6      258    110  3.08  3.22  19.4 1     0     3         1    19.9
##  5  18.7 8      360    175  3.15  3.44  17.0 0     0     3         2    17.4
##  6  18.1 6      225    105  2.76  3.46  20.2 1     0     3         1    19.3
##  7  14.3 8      360    245  3.21  3.57  15.8 0     0     3         4    13.7
##  8  24.4 4      147.    62  3.69  3.19  20   1     0     4         2    23.2
##  9  22.8 4      141.    95  3.92  3.15  22.9 1     0     4         2    23.8
## 10  19.2 6      168.   123  3.92  3.44  18.3 1     0     4         4    18.4
## # ... with 22 more rows, and 5 more variables: .resid <dbl>, .std.resid <dbl>,
## #   .hat <dbl>, .sigma <dbl>, .cooksd <dbl>
…
glance(iv)

## # A tibble: 1 x 8
##   r.squared adj.r.squared sigma statistic  p.value    df df.residual  nobs
##       <dbl>         <dbl> <dbl>     <dbl>    <dbl> <int>       <int> <int>
## 1     0.544         0.435  4.53      7.54 0.000109     7          25    32

augment(iv) %>% 
  mutate(.std.resid = scale(.resid))

## # A tibble: 32 x 11
##      mpg    hp gear   drat  qsec  disp cyl    carb .fitted .resid .std.resid[,1]
##    <dbl> <dbl> <fct> <dbl> <dbl> <dbl> <fct> <dbl>   <dbl>  <dbl>          <dbl>
##  1  21     110 4      3.9   16.5  160  6         4    16.6  4.36           1.07 
##  2  21     110 4      3.9   17.0  160  6         4    17.2  3.76           0.924
##  3  22.8    93 4      3.85  18.6  108  4         1    20.7  2.12           0.521
##  4  21.4   110 3      3.08  19.4  258  6         1    22.4 -0.965         -0.237
##  5  18.7   175 3      3.15  17.0  360  8         2    15.5  3.23           0.794
##  6  18.1   105 3      2.76  20.2  225  6         1    21.6 -3.55          -0.872
##  7  14.3   245 3      3.21  15.8  360  8         4    13.3  1.03           0.254
##  8  24.4    62 4      3.69  20    147. 4         2    20.1  4.32           1.06 
##  9  22.8    95 4      3.92  22.9  141. 4         2    24.8 -1.96          -0.480
## 10  19.2   123 4      3.92  18.3  168. 6         4    18.3  0.932          0.229
## # ... with 22 more rows
…
## # A tibble: 1 x 7
##   r.squared adj.r.squared statistic  p.value df.residual  nobs se_type
##       <dbl>         <dbl>     <dbl>    <dbl>       <dbl> <int> <chr>  
## 1     0.885         0.812      44.7 2.48e-11          19    32 HC1

Contudo, o comando augment() não é aplicável a esse formato. Isso dificultaria a extração dos valores previstos, resíduos e dos resíduos padronizados, mas montei esse comando para extrair essas informações da regressão, como se utilizássemos o augment().

rob$fitted.values %>% 
  tibble %>% 
  bind_cols(mpg = df$mpg) %>% 
  rename(.fitted = ".") %>% 
  mutate(.resid = mpg - .fitted,
         .std.resid = scale(.resid))

## # A tibble: 32 x 4
##    .fitted   mpg .resid .std.resid[,1]
##      <dbl> <dbl>  <dbl>          <dbl>
##  1    21.3  21   -0.340        -0.166 
##  2    20.9  21    0.134         0.0653
##  3    25.7  22.8 -2.86         -1.40  
##  4    19.9  21.4  1.47          0.719 
##  5    17.4  18.7  1.26          0.613 
##  6    19.3  18.1 -1.19         -0.582 
##  7    13.7  14.3  0.602         0.294 
##  8    23.2  24.4  1.18          0.574 
##  9    23.8  22.8 -1.00         -0.490 
## 10    18.4  19.2  0.845         0.412 
## # ... with 22 more rows
…
